<svg width="400" height="500" xmlns="http://www.w3.org/2000/svg" fill="#9c3570" preserveAspectRatio="none">
 <g>
  <title>Layer 1</title>
  <!-- <line stroke="#000" id="svg_2" height="500" width="400" y="0" x="0" fill="#000"/> -->
    <polygon points="0,15 400,0 400,500, 0,475"/>
 </g>

</svg>